{
    "use_profile": false,
    "result_count": 54138,
    "choices": [],
    "coupon_promoted": "",
    "hide_comments": "N",
    "badge_promoted": false,
    "hide_ads": "N",
    "banner_promoted": false,
    "promoted":true,
    "image": "Sy_mcjOMe",
    "quotes": [{
        "info": "странстващ танцьор",
        "newurl": "https://php2-cube.rhcloud.com/predishen/?name=${first_name}%26result=0"
    }, {
        "info": "певец",
        "newurl": "https://php2-cube.rhcloud.com/predishen/?name=${first_name}%26result=1"
    }, {
        "info": "блестящ интелектуалец",
        "newurl": "https://php2-cube.rhcloud.com/predishen/?name=${first_name}%26result=2"
    }, {
        "info": "известен бунтовник",
        "newurl": "https://php2-cube.rhcloud.com/predishen/?name=${first_name}%26result=3"
    }, {
        "info": "авантюрист с нежно сърце",
        "newurl": "https://php2-cube.rhcloud.com/predishen/?name=${first_name}%26result=4"
    }, {
        "info": "голям оратор",
        "newurl": "https://php2-cube.rhcloud.com/predishen/?name=${first_name}%26result=5"
    }, {
        "info": "образован мъдрец",
        "newurl": "https://php2-cube.rhcloud.com/predishen/?name=${first_name}%26result=6"
    }, {
        "info": "завоевател и покорител",
        "newurl": "https://php2-cube.rhcloud.com/predishen/?name=${first_name}%26result=7"
    }, {
        "info": "любимец на крале и управляващи",
        "newurl": "https://php2-cube.rhcloud.com/predishen/?name=${first_name}%26result=8"
    }, {
        "info": "господар на империя",
        "newurl": "https://php2-cube.rhcloud.com/predishen/?name=${first_name}%26result=9"
    }, {
        "info": "добронравен разбойник",
        "newurl": "https://php2-cube.rhcloud.com/predishen/?name=${first_name}%26result=10"
    }, {
        "info": "изявен защитник на правдата",
        "newurl": "https://php2-cube.rhcloud.com/predishen/?name=${first_name}%26result=11"
    }, {
        "info": "странстващ артист",
        "newurl": "https://php2-cube.rhcloud.com/predishen/?name=${first_name}%26result=12"
    }, {
        "info": "гуру с широко сърце",
        "newurl": "https://php2-cube.rhcloud.com/predishen/?name=${first_name}%26result=13"
    }, {
        "info": "строител на църкви, храмове, катедрали",
        "newurl": "https://php2-cube.rhcloud.com/predishen/?name=${first_name}%26result=14"
    }, {
        "info": "строител на пътища, мостове, пристанища",
        "newurl": "https://php2-cube.rhcloud.com/predishen/?name=${first_name}%26result=15"
    }, {
        "info": "химик, алхимик, майстор на отрови",
        "newurl": "https://php2-cube.rhcloud.com/predishen/?name=${first_name}%26result=16"
    }, {
        "info": "медик, хирург, лекар-знахар",
        "newurl": "https://php2-cube.rhcloud.com/predishen/?name=${first_name}%26result=17"
    }, {
        "info": "философ, мислител",
        "newurl": "https://php2-cube.rhcloud.com/predishen/?name=${first_name}%26result=18"
    }, {
        "info": "бижутер, часовникар",
        "newurl": "https://php2-cube.rhcloud.com/predishen/?name=${first_name}%26result=19"
    }, {
        "info": "майстор-занаятчия",
        "newurl": "https://php2-cube.rhcloud.com/predishen/?name=${first_name}%26result=20"
    }, {
        "info": "инжинер",
        "newurl": "https://php2-cube.rhcloud.com/predishen/?name=${first_name}%26result=21"
    }, {
        "info": "вожд (лидер)",
        "newurl": "https://php2-cube.rhcloud.com/predishen/?name=${first_name}%26result=22"
    }, {
        "info": "военен - майор/капитан",
        "newurl": "https://php2-cube.rhcloud.com/predishen/?name=${first_name}%26result=23"
    }, {
        "info": "коняр",
        "newurl": "https://php2-cube.rhcloud.com/predishen/?name=${first_name}%26result=24"
    }, {
        "info": "обущар",
        "newurl": "https://php2-cube.rhcloud.com/predishen/?name=${first_name}%26result=25"
    }],

    "quiz": {
        "title": "Какъв си бил в предишен живот",
        "time_limit": 0,
        "feedback": "N",
        "extra": {},
        "updated_at": "2015-08-26T09:13:25",
        "thumbnail_path": "/api/i/227/0/thumbnail",
        "id": 227,
        "special": "",
        "type2": "X",

        "bg_image_url": "//arpecop.com/mysticbox/assets/tumblr_o3recwFcvL1uip6ezo6_500.jpg",
        "temp_flag": "",
        "desc": "Според спомените от този живот , можем да намерим каквъв сте били в предишен",
        "type": "C",
        "bg_color": "",
        "sns": "recommend",
        "hashtag": "quote",
        "open_at": "2015-08-26T09:13:25",

        "created_at": "2015-08-24T04:40:48",
        "enabled": "Y",


        "extra_json": null
    },
    "share": "Сподели във Facebook"
}