{
    "use_profile": true,
    "result_count": 50139,
    "image": "Bk4SfnXye",
    "quotes": ["Watch XX movies", "Share XX meals", "Drink XX bottles", "Hang out XX times"],
    "coupon_promoted": "",
    "share": "Сподели с Фейсбук",
    "perms": "user_posts",
    "quiz": {
        "time_limit": 0,
        "feedback": "N",
        "extra": {
            "thumbnail-size": {
                "width": 1200,
                "height": 630
            },
            "thumbnail-overlay": [{
                "font-size": "50px",
                "color": "#ffffff",
                "text": "Кои са твоите 3ма най-верни приатели?",
                "top": "518px",
                "overlay_type": "text",
                "shadow-color": "#000000",
                "text-v-align": "top",
                "shadow-offset-x": "0px",
                "text-box-width": "1100px",
                "shadow-offset-y": "2px",
                "font-name": "NotoSansCJK-Black.ttc",
                "text-box-height": "74px",
                "text-align": "center",
                "line-height": "110%",
                "left": "50px"
            }]
        },
        "updated_at": "2015-10-15T17:12:11",
        "thumbnail_path": "/api/i/317/0/thumbnail",
        "id": 317,
        "special": "snsfriend_all_3",
        "type2": "X",
        "title": "Кои са твоите 3ма най-верни приатели?",
        "bg_image_url": "http://lh3.googleusercontent.com/v7y86LpR9dPUPj4IIbrARMd_kN8sz-_EpAeInPF0Iy2yMokiX6_SaEjbcBwQrVSB61TdedGyJ2DW8qOalgsC=s0",
        "temp_flag": "",
        "desc": "Лоялноста е най-доброто качество на един приятел! Открий тримата на които можеш да имаш най-голямо доверие!",
        "type": "C",
        "bg_color": "",
        "sns": "facebook",
        "hashtag": "",
        "open_at": "2015-10-15T17:12:11",
        "image2_url": "",
        "created_at": "2015-10-13T06:34:48",
        "enabled": "Y",
        "thumbnail_url": "http://lh3.googleusercontent.com/C-hkb6LnRhmK3bUjpW3f6-VCoh5M0OGK7Du51S3rBdz8VmwVG0loehGLSIS18mhom5_pkAppovNTYyDrc0k=s0",
        "image_url": "http://lh3.googleusercontent.com/hQ4QEuOe_QQ6_tpwWniD1oeiFADqIWDq1d4GxxiWxWS556pqMydIbzrTLb2_4XU0YdrJP0geYX1YZ3_rUhF1euBeszWmcBU8VQ=s0"
    }
}
