{
    "use_profile": true,
    "result_count": 7838,
    "choices": [],
    "questions": [{
        "extra": {},
        "text": "a",
        "number": 1,
        "image_url": "",
        "extra_json": "{}",
        "quiz_id": 825,
        "type": "D",
        "id": 2384
    }],
    "coupon_promoted": "",
    "hide_comments": "N",
    "badge_promoted": false,
    "hide_ads": "N",
    "banner_promoted": false,
    "quiz": {
        "time_limit": 0,
        "feedback": "N",
        "extra": {
            "thumbnail-size": {
                "width": 1200,
                "height": 630
            },
            "thumbnail-overlay": [{
                "font-size": "60px",
                "color": "#ffffff",
                "text": "Which type are you?",
                "top": "40px",
                "overlay_type": "text",
                "text-box-width": "1200px",
                "font-name": "NotoSansCJK-Bold.ttc",
                "text-align": "center",
                "left": "0px"
            }, {
                "font-size": "48px",
                "color": "#ffffff",
                "text": "CAT PERSON",
                "top": "430px",
                "overlay_type": "text",
                "font-name": "NotoSansCJK-Bold.ttc",
                "left": "183px"
            }, {
                "font-size": "48px",
                "color": "#ffffff",
                "text": "DOG PERSON",
                "top": "430px",
                "overlay_type": "text",
                "font-name": "NotoSansCJK-Bold.ttc",
                "left": "710px"
            }]
        },
        "updated_at": "2016-01-22T05:50:27",
        "thumbnail_path": "/api/i/825/0/thumbnail",
        "id": 825,
        "special": "",
        "type2": "X",
        "title": "Are you a Dog person or a Cat person?",
        "bg_image_url": "http://lh3.googleusercontent.com/ANPdNJQpJRVC3Dx51aPZpshjfy7q5NrD46UoW1Iwfd-PUR4npm6BLtbXcCjYptUXT1_3jhZookwniwirkUWP=s0",
        "temp_flag": "",
        "desc": "Are You Actually A Cat Person Or Dog Person? Or somewhere in between?",
        "type": "C",
        "bg_color": "",
        "sns": "facebook",
        "hashtag": "MountainVsBeach",
        "open_at": "2016-01-22T05:50:27",
        "image2_url": "",
        "created_at": "2016-01-21T13:17:32",
        "enabled": "Y",
        "thumbnail_url": "http://lh3.googleusercontent.com/IMYWZlZ169yPQ6vgA5vte2Kc_AdK8R6kwsFTjomxLlFtf7Oaw0R-VJYcGp-gU1D9rbamqlN-Gl6yS6-uDMcZ=s0",
        "image_url": ""
    }
}
