{
  "_id": "4d2377f96201f",
  "promoted":true, "type":"bg", "hrev2": "1-7e68a523111ddd00bc9bf29ce43eefc1",
  "questions": [
    {
      "1": "",
      "2": "",
      "3": "",
      "question": ""
    },
    {
      "1": "да, винаги съм в крак с най-новите модни тенденции",
      "2": " опитвам се, но не следвам сляпо чуждите виждания ",
      "3": " съобразявам се с парите и моята фигура най - вече ",
      "question": "Следвате ли стриктно модната линия в облеклото?"
    },
    {
      "1": " за всеки тоалет имам подходящо бельо и като модел, и като цвят ",
      "2": " гледам преди всичко да ми е удобно ",
      "3": " съвсем не съм безразлична към бельото си ",
      "question": "Държите ли бельото ви да бъде изискано и секси дори? "
    }
  ],
  "appname": "Провокирате ли мъжкия интерес?",
  "description": "",
  "quiz": "1",
  "slug": "quizimage",
  "share": "Сподели във Фейсбук",
  "image": "",
  "results": [
    {
      "short": "",
      "full": "Държите на външността си и ви е приятно, когато другите казват нещо хубаво за вашите тоалети или прическа. Но не сте последователна докрай, макар че все си обещавате на себе си да обръщате най - напред внимание, после на къщата и другите у дома. Пък и изглежда, че не обичате да кокетирате с мъжкото внимание.",
      "image": ""
    },
    {
      "short": "",
      "full": "Вие искате да бъдете винаги в мъжкото полезрение. Затова правите всичко, което е по силите ви, за да изглеждате добре и дори впечатляващо. Обичате предизвикателните тоалети, не подминавате нищо, което е на върха на модната вълна. Един комплимент от представител на мъжкия пол ви прави щастлива за цял ден. Това е целта на вашите старания.",
      "image": ""
    },
    {
      "short": "",
      "full": "Държите на външността си и ви е приятно, когато другите казват нещо хубаво за вашите тоалети или прическа. Но не сте последователна докрай, макар че все си обещавате на себе си да обръщате най - напред внимание, после на къщата и другите у дома. Пък и изглежда, че не обичате да кокетирате с мъжкото внимание.",
      "image": ""
    }
  ]
}