{
  "_id": "4d28cf32958ae",
  "promoted":true, "type":"bg", "hrev2": "1-34cda64b56007ddadb166b326e03d0fd",
  "questions": [
    {
      "1": "",
      "2": "",
      "3": "",
      "question": ""
    },
    {
      "1": "а) Почти никога .                               ",
      "2": "б) даскало / колеж/ работа нямам време",
      "3": "в) всяка вечер ",
      "question": "Колко често си споделяте ?"
    },
    {
      "1": "а) Винаги сме искрени и не се караме ",
      "2": "б) имам чувството че крие нещо от мен",
      "3": "в) непрекъснато се караме за дреболии",
      "question": "Колко добре се разбирате ?"
    },
    {
      "1": " Мисля че ДА  :(",
      "2": "не той не би ми причинил таковано нещо",
      "3": "не съм много сигурна",
      "question": "Имате ли чувството че ви изневерява"
    },
    {
      "1": "ДА и то 2 пъти не вярвах ,че така ще ме унижи пред приятели",
      "2": "пфф НЕЕ",
      "3": "ДА ,но по работа",
      "question": "връзвал ли ви е някога тенекия ?"
    },
    {
      "1": "на първата ни среща",
      "2": "още не сме",
      "3": "след първата ни среща",
      "question": "Кога се целунахте за пръв път"
    },
    {
      "1": "беше любов от пръв поглед",
      "2": "гледах как караше колело и си казах \"хей той е страхотен",
      "3": "беше много романтично ...",
      "question": "Как се влюбихте в него/нея ?"
    },
    {
      "1": "беше само целувка",
      "2": "само веднаж",
      "3": "НЕ",
      "question": "изневерявали ли сте му/й "
    },
    {
      "1": "нее",
      "2": "само ако е по-готин",
      "3": "разбира се .вече ми омръзна да съм  с него/нея",
      "question": "А бихте ли"
    }
  ],
  "appname": "\"Дали е за мен\"",
  "description": "сигурно много пъти сте се питали дали гаджето или мъжът ви е за вас ",
  "quiz": "1",
  "slug": "quizimage",
  "share": "Сподели във Фейсбук",
  "image": "",
  "results": [
    {
      "short": "Вие се страхотна двойка и имате бъдеще заедно не го оставяй да си замине",
      "full": "",
      "image": ""
    },
    {
      "short": "не си прили4ате много но ако се помъ4ите може да издържите още няколко месеца",
      "full": "",
      "image": ""
    },
    {
      "short": "хмм. Вие нее сте един за друг",
      "full": "",
      "image": ""
    }
  ]
}