{
  "_id": "4d3887906d322",
  "promoted":true, "type":"bg", "hrev2": "1-e983957a84f2431c00128daffd6de2e6",
  "questions": [
    {
      "1": "",
      "2": "",
      "3": "",
      "question": ""
    },
    {
      "1": "да",
      "2": "не",
      "3": "зависи",
      "question": "Занимавате ли се с рисуване?"
    },
    {
      "1": "да",
      "2": "не",
      "3": "зависи",
      "question": "Често ли ви става тъжно?"
    },
    {
      "1": "да",
      "2": "не",
      "3": "зависи",
      "question": "Когато разказвате някакъв действителен случай прибавяте ли тук там по някоя измислена подробност за украшение?"
    },
    {
      "1": "да",
      "2": "не",
      "3": "зависи",
      "question": "Проявявате ли инициатива в работата?"
    },
    {
      "1": "да",
      "2": "не",
      "3": "зависи",
      "question": " В облекото си ръководите ли се повече от собствения си вкус, отколкото от модата?"
    },
    {
      "1": "да",
      "2": "не",
      "3": "зависи",
      "question": "Когато слушате музика, възникват ли у вас образи, свързани с мелодията?"
    },
    {
      "1": "да",
      "2": "не",
      "3": "зависи",
      "question": "Понякога сънувате ли необикновени сънища?"
    }
  ],
  "appname": "Имате ли фантазия?  ",
  "description": "",
  "quiz": "1",
  "slug": "quizimage",
  "share": "Сподели във Фейсбук",
  "image": "",
  "results": [
    {
      "short": "",
      "full": "Имате буйна фантазия. Ако можете да я използвате умело, животът ви може да бъде много по-богат, да донесете много радост на хората около вас.\r\n",
      "image": ""
    },
    {
      "short": "",
      "full": "Вие сте реалист. Не летите в облаците, но малко фантазия още не е навредила никому.\r\n",
      "image": ""
    },
    {
      "short": "",
      "full": "Вашата фантазия не е от най-слабите. Зависи само от вас ще съумеете ли да я доразвиете.\r\n",
      "image": ""
    }
  ]
}