{
  "_id": "4d38916ba2fd3",
  "promoted":true, "type":"bg", "hrev2": "1-d72b5f1365bde2ad376744aaaa1a4b36",
  "questions": [
    {
      "1": "",
      "2": "",
      "3": "",
      "question": ""
    },
    {
      "1": "доста добре",
      "2": "донякъде",
      "3": "изобщо не",
      "question": "Познато ли ви е чувството на безпомощен гняв:"
    },
    {
      "1": " да, повечето продавачи могат да бъдат убедени",
      "2": "зависи от конкретния магазин",
      "3": "не, няма смисъл",
      "question": "Купили сте си нещо ново, което не ви харесва. Ще опитате ли да го смените: "
    },
    {
      "1": "приятна мелодия",
      "2": "хубав виц",
      "3": "приятна компания",
      "question": "Кое ще ви помогне да се избавите от лошото настроение:"
    },
    {
      "1": "да",
      "2": "не",
      "3": "зависи с кого разговарям",
      "question": "По време на телефонен разговор вълнувате ли се повече, отколкото при личен контакт:"
    },
    {
      "1": "смущавам се",
      "2": "приятно ми е",
      "3": " чудно ми е",
      "question": "Какво чувствате, ако някой ви се усмихне без причина:"
    }
  ],
  "appname": "Имате ли чар?",
  "description": "",
  "quiz": "1",
  "slug": "quizimage",
  "share": "Сподели във Фейсбук",
  "image": "",
  "results": [
    {
      "short": "",
      "full": "Обичате хората. Искате да се чувстват добре във вашата компания. Използвате чара си и отношението ви е искрено. То идва направо от сърцето ви, затова лесно намирате пътя към другите.",
      "image": ""
    },
    {
      "short": "",
      "full": "Когато използвате чара си, без усилие постигате всичко. Ако нямате полза от това, не си правите труда да бъдете мили. Пресметливи сте и останалите ще разберат това. Уважавайте останалите хора, иначе лесно ще се окажете в изолация.",
      "image": ""
    },
    {
      "short": "",
      "full": "Обичате хората. Искате да се чувстват добре във вашата компания. Използвате чара си и отношението ви е искрено. То идва направо от сърцето ви, затова лесно намирате пътя към другите.",
      "image": ""
    }
  ]
}