{
  "_id": "4d3dce47b5bdf",
  "promoted":true, "type":"bg", "hrev2": "1-eecc98166b69836eb71a43dab364aaf6",
  "questions": [
    {
      "1": "",
      "2": "",
      "3": "",
      "4": "",
      "5": "",
      "question": ""
    },
    {
      "1": "SHTE SE SPORAZOMEQ ZA PO-NISKA",
      "2": "VZIMAM SI DRUG I NE MI PUKA",
      "3": "NQMA I DA POGLEDNA",
      "4": "STE PREPISVAM BEZ DA ME VIDQT",
      "5": "DA",
      "question": ""
    },
    {
      "1": "NE MI PUKA NQMA DA PRAVQ SKANDALI",
      "2": "SHTE KAJA NA SHEFA IM",
      "3": "SHTE NAZUBRQ VSICHKO",
      "4": "SHTE PISHA GLUPOSTI",
      "5": "NE",
      "question": ""
    },
    {
      "1": "SHTE SI TRAGNA BEZ DA PLATQ",
      "2": "SHTE RAZNESA SLUH ZA TQH",
      "3": "SHTE PRO4ETA 1 PAT I TVA E",
      "4": "NQMA DA PRAVQ NISHTO",
      "5": "GORE DOLU",
      "question": ""
    }
  ],
  "appname": "VIP or LOSER",
  "description": "VIP or LOSER",
  "quiz": "1",
  "slug": "quizimage",
  "share": "Сподели във Фейсбук",
  "image": "",
  "results": [
    {
      "short": "AKO STE NA PO KOLA I SMETKATA VI IZLIZA GOLQMA:",
      "full": "",
      "image": ""
    },
    {
      "short": "V MAGAZINA E SVARSHIL LUBIMIQ VI SHEIK:",
      "full": "",
      "image": ""
    },
    {
      "short": "IMATE TE TEST UTRE,KAKVO SHTE NAPRAVITE:",
      "full": "",
      "image": ""
    },
    {
      "short": "TESTAT VI E DNES NO NE STE UCHILI:",
      "full": "",
      "image": ""
    },
    {
      "short": "OBICHATE LI DA POHAPVATE:",
      "full": "",
      "image": ""
    }
  ]
}