{
  "_id": "4d436ea142973",
  "promoted":true, "type":"bg", "hrev2": "1-b160aef20b7126336519e91ffce6f200",
  "questions": [
    {
      "1": "",
      "2": "",
      "3": "",
      "question": ""
    },
    {
      "1": "мнооо",
      "2": "квооооооо",
      "3": "е па два три ",
      "question": " Колко триъгълника виждаш ?"
    },
    {
      "1": "Да нямаш др патки освен мен ",
      "2": "Застреляй всички патки",
      "3": "ми нещо с патки ",
      "question": "Коя е първата патешка заповед ?"
    },
    {
      "1": "Всички патки дружно",
      "2": "ъъъ.... нинам",
      "3": "ба ли го, няколко",
      "question": "Колко патки са нужни да завият една крушка ?"
    },
    {
      "1": "Всичко с патки",
      "2": "Погребан",
      "3": "Кости",
      "question": "Кой е любимият ти филм ?"
    },
    {
      "1": "Жълто",
      "2": "Бозаво",
      "3": "Мораво",
      "question": "Кой е любимият ти цвят ?"
    },
    {
      "1": "патка слънчасала",
      "2": "много добра",
      "3": "пичш",
      "question": "Каква е най-добрата ти приятелка ?"
    },
    {
      "1": "ти лети летиииииииииии",
      "2": "ми ок",
      "3": "ми слънчасала сигурно",
      "question": "Каааак сиииииии ?"
    },
    {
      "1": "о мноооо пъти ",
      "2": "ми не",
      "3": "ми рядко",
      "question": "Спирали ли са ти тока ?"
    },
    {
      "1": "е мн ясно",
      "2": "ми нз",
      "3": "е па стаате ",
      "question": "Патки ли сме според теб ?"
    },
    {
      "1": "ша стане , че не моооо се запра",
      "2": "ти наред ли си ",
      "3": "на там отивам",
      "question": "А ти патка ли си ?"
    }
  ],
  "appname": "Слънчасала патка ли си ?",
  "description": "Добър ден, аз съм ваща леля :р",
  "quiz": "1",
  "slug": "quizimage",
  "share": "Сподели във Фейсбук",
  "image": "",
  "results": [
    {
      "short": "Ти си най-голямата патка слънчасала!",
      "full": "Евала , пичш, ти си пичш !!!",
      "image": ""
    },
    {
      "short": "Ти и за пуйка не стаааш !",
      "full": "Алооопатричната / я се запали и нарежи, че да се опаткиш !",
      "image": ""
    },
    {
      "short": "Има леб у тебе чадо !",
      "full": "Ако слушкаш мое доеш при назе на курс по въведение в патешкото слънчасване !",
      "image": ""
    }
  ]
}