{
  "_id": "4d44659f42546",
  "promoted":true, "type":"bg", "hrev2": "1-0e65873e614c337d2c2c84799053554e",
  "questions": [
    {
      "1": "",
      "2": "",
      "3": "",
      "question": ""
    },
    {
      "1": "160литра",
      "2": "50литра",
      "3": "85литра",
      "question": "Колко литра жода пие слона днежно?"
    },
    {
      "1": "9години",
      "2": "5години",
      "3": "7години",
      "question": "Колко години йижеят ложните ку4ета?"
    },
    {
      "1": "1кг",
      "2": "400г",
      "3": "800г - 900г",
      "question": "Колко тежат мъжките морските свинчета?"
    },
    {
      "1": "4",
      "2": "15",
      "3": "3",
      "question": "Колко зъба имат морските сжин4ета?"
    },
    {
      "1": "3месеца",
      "2": "6месеца",
      "3": "4месеца",
      "question": "Колко месеца носи ку4ето бебетата си?"
    },
    {
      "1": "прасето",
      "2": "лъвът",
      "3": "котката",
      "question": "Кое животно яде царевица?"
    },
    {
      "1": " с косми",
      "2": "голи",
      "3": "нито един от джата отгожора",
      "question": "Как се раждат малките морски свин4ета голи или с косми?"
    },
    {
      "1": "125см",
      "2": "15см",
      "3": "100см",
      "question": "Колко см обикновено са дълги 4ержата на морските свинчета?"
    },
    {
      "1": "70 - 100грама",
      "2": "115 - 145грама",
      "3": "90 - 110грама",
      "question": "Колко грама тежат новородените морските свинчета?"
    }
  ],
  "appname": "Животни",
  "description": "Става дума за жиботните.",
  "quiz": "1",
  "slug": "quizimage",
  "share": "Сподели във Фейсбук",
  "image": "",
  "results": [
    {
      "short": "Отли4но!!!!",
      "full": "Ти наистина си отли4ен ",
      "image": ""
    },
    {
      "short": "Зле",
      "full": "Ти си тотално зле !!!!!!!!!!!!!!!!!!!!!!!!!!!!!!!!!!!!!!!!!!!!!!!!!!!!!!!!",
      "image": ""
    },
    {
      "short": "Добре си!!",
      "full": "Ти си наистина добре нищо 4е си на едно нижо по- малко от супер но все пак си",
      "image": ""
    }
  ]
}