{
  "_id": "4d49be05c0ec4",
  "promoted":true, "type":"bg", "hrev2": "1-c2a534d573811d73d01a484e01075272",
  "questions": [
    {
      "1": "",
      "2": "",
      "3": "",
      "question": ""
    },
    {
      "1": "приемам с ентусиазъм",
      "2": "приемам, но ако нещата добият вид на оргия, тръгвам си тихoмълком",
      "3": "отказвам категорично",
      "question": "Предлагат ви да отидете на необичаен, непредсказуем купон. Как ще реагирате?"
    },
    {
      "1": "голямо куче",
      "2": "малко котенце",
      "3": "нито едно от двете",
      "question": "Какво домашно животно предпочитате?"
    },
    {
      "1": "като неудобен",
      "2": "като забавен",
      "3": "като възбуждащ",
      "question": "Ако някой разкаже сексуален виц, как ще го възприемете?"
    },
    {
      "1": "любовта",
      "2": "сигурността",
      "3": "секса",
      "question": "Кое считате за най-важно в брака?"
    },
    {
      "1": "зелен",
      "2": "червен",
      "3": "бял",
      "question": "Кой от посочените по-долу цветове предпочитате?"
    },
    {
      "1": "това е съвсем естествено",
      "2": "не, това противоречи на пола",
      "3": "възможно е, но само в някои случаи",
      "question": "Вярвате ли, че мъжът и жената могат да бъдат \"просто добри приятели\"?"
    },
    {
      "1": "одобрявам ги",
      "2": "не ги одобрявам",
      "3": "нямам мнение",
      "question": "Какво мислите за извънбрачните сексуални връзки?"
    },
    {
      "1": "приемам с удоволствие",
      "2": "чувствам се поласкан/а, но отказвам",
      "3": "възмутено и обидено",
      "question": "Запознавате се с красив/а мъж/жена на вечерно парти. Предлага ви да отидете в спалнята. Как реагирате?"
    }
  ],
  "appname": "Шокирате ли околните? ",
  "description": "",
  "quiz": "1",
  "slug": "quizimage",
  "share": "Сподели във Фейсбук",
  "image": "",
  "results": [
    {
      "short": "",
      "full": "Не умеете да шокирате, но лесно изпадате в шок. Ежедневието ви плаши и вие не го одобрявате. За вас любовта е по - важна от секса и вие вярвате в традиционните идеали.",
      "image": ""
    },
    {
      "short": "",
      "full": "Знаете кога да рискувате, но момента определяте сам/а. Все още вярвате в брака и мислите, че сексът трябва да се прави с любов. Проучвате най - хубавото и от двата свята: стария - консервативен и новия - свободомислещ.",
      "image": ""
    },
    {
      "short": "",
      "full": "Светкавици хвърчат, където и да отидете. Обичате да шокирате заобикалящите ви. Вие сте ексцентричен човек, без всякакви задръжки. Обичате забавленията. Вярвате, че бракът е изцяло демоде и предпочитате сексуалната свобода.",
      "image": ""
    }
  ]
}