{
  "_id": "4d4c4011f22f8",
  "promoted":true, "type":"bg", "hrev2": "1-a21d2b8ddd4b5532644a4672d713b1ff",
  "questions": [
    {
      "1": "",
      "2": "",
      "3": "",
      "4": "",
      "5": "",
      "question": ""
    },
    {
      "1": "Да!",
      "2": "Не!",
      "3": "Донякъде.",
      "4": "Опитваш се.",
      "5": "Абсолютно.",
      "question": "Себе си ли си когато си с него/нея?"
    },
    {
      "1": "Да!",
      "2": "Не!",
      "3": "Познаваме се,но не си говорим особенно много.",
      "4": "Не,но винаги когато се видим се поглеждаме.",
      "5": "Бяхме.",
      "question": "Добри приятели ли сте?"
    },
    {
      "1": "Да,непрекъснато.",
      "2": "Аз да-но той/тя никога.",
      "3": "Рядко.",
      "4": "Не.",
      "5": "Преди.",
      "question": "Сръчквате ли се?"
    },
    {
      "1": "Всеки ден.",
      "2": "Въобще не си говорим.",
      "3": "Само се поздравяваме.",
      "4": "Наистина често,но има и дни в които изобщо.",
      "5": "Преди повече,но сега не чак толкова много.",
      "question": "Общувате ли често?"
    },
    {
      "1": "Почти на всяка съм там.",
      "2": "На нито една.",
      "3": "Само на една.",
      "4": "На няколко снимки ме е отбеляал/а.",
      "5": "В старите му албуми.",
      "question": "Отбелвязва ли ви на снимки?"
    },
    {
      "1": "Да.",
      "2": "Той/тя е завършил/а отдавна.",
      "3": "В по-горен клас е.",
      "4": "В другата парелекла е.",
      "5": "Премести се в друг клас.",
      "question": "В един клас ли сте?"
    },
    {
      "1": "Всеки ден.",
      "2": "Никога.",
      "3": "Само един път.",
      "4": "Понякога.",
      "5": "Преди.",
      "question": "Излизате ли?"
    }
  ],
  "appname": "Харесва ли ви момичето/момчето което харесвате?",
  "description": "Ще разберете дали момчето/момичето което харесвате също изпитва това.",
  "quiz": "1",
  "slug": "quizimage",
  "share": "Сподели във Фейсбук",
  "image": "",
  "results": [
    {
      "short": "Да!",
      "full": "Определено той/тя ви обича истински!",
      "image": ""
    },
    {
      "short": "Не",
      "full": "Той/тя те мисли само за приятел/ка.",
      "image": ""
    },
    {
      "short": "Не е сигурен/на",
      "full": "Той/тя все още не е сигурен/на в чуствата си.",
      "image": ""
    },
    {
      "short": "Незнае как да ти го каже",
      "full": "Обича те,но незнае как да ти го каже мисли че може да развали приятелството ви.",
      "image": ""
    },
    {
      "short": "Вече не",
      "full": "Чакал/а те е прекалено дълго и се е отказал.",
      "image": ""
    }
  ]
}