{
  "_id": "4d54464733058",
  "promoted":true, "type":"bg", "hrev2": "1-9cca6ca794875479a7e1e52b53a1ed90",
  "questions": [
    {
      "1": "",
      "2": "",
      "3": "",
      "question": ""
    },
    {
      "1": "мъжки род",
      "2": "отрицателно",
      "3": "женски род",
      "question": "Шапка в кой род е?"
    },
    {
      "1": "ро",
      "2": "род",
      "3": "ът",
      "question": "Кой е глаола на Народът?"
    },
    {
      "1": "мъжки род",
      "2": "нарицателен",
      "3": "женски род",
      "question": "Слънце в кой род е."
    },
    {
      "1": "да",
      "2": "не",
      "3": "горе-долу",
      "question": "Мразиш ли Българския език?"
    },
    {
      "1": "мразят",
      "2": "училището",
      "3": "хора",
      "question": "Гъде има глагол в изречението?Училището много хора го мразят"
    },
    {
      "1": "да",
      "2": "не",
      "3": "имам там някакви шестици",
      "question": "имаш ли 20 шестици по БЕ?"
    }
  ],
  "appname": "Добър ли си по Български?",
  "description": "Има въпроси.",
  "quiz": "1",
  "slug": "quizimage",
  "share": "Сподели във Фейсбук",
  "image": "",
  "results": [
    {
      "short": "Ти найстина не знаеш.",
      "full": "Ти си много зле с Българския език.Не ти препоръчвам да се захващаш с Ахмед Доган.",
      "image": ""
    },
    {
      "short": "бРАВО научил си Българския.",
      "full": "Ти стана любител на Българския език.",
      "image": ""
    },
    {
      "short": "",
      "full": "",
      "image": ""
    }
  ]
}