{
  "_id": "4d54324b478c8",
  "promoted":true, "type":"bg", "hrev2": "1-47d76ef6575184fb03e1f70d59ba42f5",
  "questions": [
    {
      "1": "",
      "2": "",
      "3": "",
      "question": ""
    },
    {
      "1": " Иван Вазов",
      "2": "Елин Пелин",
      "3": "Йордан Йовков",
      "question": "„Косачи” е разказ, написан от:"
    },
    {
      "1": "Лазо",
      "2": " Стамо",
      "3": " Благолаж",
      "question": "На кой от героите в разказа „Косачи” принадлежат думите: „ Защо ти е истината? Да взема да ти разправям, да речем, за дрипавите гащи на дядо Тодор или за смачканата калимавка на дядо поп?......Всичко това, приятелю, е истина. Ама защо ти е тая пуста истина?”:"
    },
    {
      "1": "повест",
      "2": "легенда",
      "3": "роман",
      "question": " „Приказка без край” е:"
    },
    {
      "1": " харесва книгата на външен вид",
      "2": "обича да чете и търси книга, която не свършва",
      "3": "просто така му хрумва",
      "question": "По каква причина Бастиян открадва книгата „Приказка без край”:"
    },
    {
      "1": "разказ",
      "2": " литературна приказка",
      "3": " повест",
      "question": "Творбата „Серафим” е:"
    },
    {
      "1": " Иван",
      "2": "Пенка",
      "3": "Еню",
      "question": "Кой не е герой от творбата „Серафим”:"
    }
  ],
  "appname": "Тест – Литература 6 клас",
  "description": "колко знаеш по БЕЛ",
  "quiz": "1",
  "slug": "quizimage",
  "share": "Сподели във Фейсбук",
  "image": "",
  "results": [
    {
      "short": "злее",
      "full": "оле ле зле",
      "image": ""
    },
    {
      "short": "добре",
      "full": "справил си си добре",
      "image": ""
    },
    {
      "short": "отлично",
      "full": "супер браво",
      "image": ""
    }
  ]
}