{
  "_id": "4d7a6c91aa1c6",
  "promoted":true, "type":"bg", "hrev2": "1-a441c5effe4ca817a8c6328010ef22cb",
  "questions": [
    {
      "1": "",
      "2": "",
      "3": "",
      "question": ""
    },
    {
      "1": "не",
      "2": "да",
      "3": "",
      "question": "Правили ли сте секс в леглото на родителите си?"
    },
    {
      "1": "искате да кажете че има повече от една?",
      "2": "достатъчно, за да знам коя харесвам",
      "3": "ами сигурно почти всичките",
      "question": "Колко сексуални пози сте пробвали до сега?"
    },
    {
      "1": "не",
      "2": "да",
      "3": "не помня",
      "question": "Правили ли сте секс, докато вашата котка или куче са в стаята?"
    },
    {
      "1": "не",
      "2": "да",
      "3": "",
      "question": "Правили ли сте или правили ли са ви орален секс в превозно средство в движение?"
    },
    {
      "1": "абсурд,  не бих си и помислил/а",
      "2": "не, но ми е минавало през ума",
      "3": "да",
      "question": "Правили ли сте някога секс с родител на някой от приятелите ви?"
    }
  ],
  "appname": "Сексуално-непорочен тест ",
  "description": "",
  "quiz": "1",
  "slug": "quizimage",
  "share": "Сподели във Фейсбук",
  "image": "",
  "results": [
    {
      "short": "",
      "full": "Какъвто и да е случая, вашата умерена предприемчивост е най-вероятно това, което поддържа огъня на страстната ви любов в живота. Секса в края на краищата е естествено и красиво нещо и няма нищо срамно да се опипа почвата – при положение, че се придържате към нещата които ви се струват уместни.",
      "image": ""
    },
    {
      "short": "",
      "full": "Може да не сте 100% секс дявол, но сте се доближавали до това състояние няколко пъти. Някои от нощните ви приключения могат спокойно да стресират баба ви, но има други неща, които или не завъртат манивелата ви, или не сте имали възможността да изследвате все още.",
      "image": ""
    },
    {
      "short": "",
      "full": "Няма “правилно” или “грешно” когато става дума за секс. При положение, че се забавлявате и не пречите на никой, толкова по-добре за вас.",
      "image": ""
    }
  ]
}