{
  "_id": "4d7fb063622d4",
  "promoted":true, "type":"bg", "hrev2": "1-b23c263d6835633caa738def578cbfc1",
  "questions": [
    {
      "1": "",
      "2": "",
      "3": "",
      "question": ""
    },
    {
      "1": "Задължително се запознаваме.",
      "2": "Ако е много настойчив(а), завързваме разговор.",
      "3": "Избягвам непознати хора.",
      "question": "Как реагирате, когато ви заговори непознат от другия пол?"
    },
    {
      "1": "Без никакъв проблем. ",
      "2": "Зависи от проблема.",
      "3": "Трудно споделям проблемите си.",
      "question": "Лесно ли споделяте проблемите си с любим човек?"
    },
    {
      "1": "Сексът е основна тема на разговор.",
      "2": "Говоря за секс само с най-близките си приятели.",
      "3": "Никога не говоря за секс.",
      "question": "Говорите ли за секс с приятелите си от вашия пол?"
    },
    {
      "1": "Винаги излизам да се забавлявам с такава нагласа.",
      "2": "Понякога, когато съм с подходящи хора.",
      "3": "Никога не излизам с такава нагласа.",
      "question": "Колко често излизате вечер с нагласата да флиртувате?"
    },
    {
      "1": "Като изключително добро.",
      "2": "Имам самочувствие.",
      "3": "Нямам самочувствие.",
      "question": "Как определяте самочувствието си?"
    }
  ],
  "appname": "Умеете ли да си \"поискате\"?",
  "description": "Вземате ли инициативата , ако имате желание за секс или оставяте другият да направи първата крачка? Заявявате ли открито желанията си или изчаквате нещата да се случат от \"само-себе си\"? Този тест ще ви помогне да разберете. ",
  "quiz": "1",
  "slug": "quizimage",
  "share": "Сподели във Фейсбук",
  "image": "",
  "results": [
    {
      "short": "",
      "full": "Нямате никакъв проблем да си поискате и да получите секс. Правил(а) сте го неведнъж и го приемате за нещо нормално.",
      "image": ""
    },
    {
      "short": "",
      "full": "Вие сте в състояние да си поискате секс само ако другия ви предположи. Рядко сам(а) поемате инициативата, но когато го правите, се справяте много добре.",
      "image": ""
    },
    {
      "short": "",
      "full": "Не умеете да си поискате секс. Никога не успявате да се отпуснете и това пречи на отношенията ви с другия пол.",
      "image": ""
    }
  ]
}