{
  "_id": "4dcfe6b132202",
  "promoted":true, "type":"bg", "hrev2": "1-b7c83c5a06c5b8a896c951f7a2dff4be",
  "questions": [
    {
      "1": "",
      "2": "",
      "3": "",
      "4": "",
      "5": "",
      "question": ""
    },
    {
      "1": "Разбира се, че 0",
      "2": "Разбира се, че 4",
      "3": "Мисля, че е 18",
      "4": "Май 4000",
      "5": "Не знам",
      "question": "Колко е 4000:0 ?"
    },
    {
      "1": "Най високият и връх е 8000 м",
      "2": "Най високият и връх е Мусала",
      "3": "Намира се в Европа",
      "4": "Какво",
      "5": "Какво е България",
      "question": "Кое не се отнася за България?"
    },
    {
      "1": "През 1879",
      "2": "1900",
      "3": "1880",
      "4": "Май през 681",
      "5": "2001",
      "question": "През коя година е освободена България от Турско робство?"
    },
    {
      "1": "До, ре, ми, фа, сол, ла, си,до",
      "2": "До,ми,ре,фа,сол,ла,си,до",
      "3": "Май 1+1",
      "4": "Не знам",
      "5": "Какво е това",
      "question": "Нотите са подредени така:"
    },
    {
      "1": "26",
      "2": "25",
      "3": "30",
      "4": "100",
      "5": "Не знам",
      "question": "Колко букви има английската азбука?"
    },
    {
      "1": "Иван Вазов",
      "2": "",
      "3": "",
      "4": "Май ти",
      "5": "Аз",
      "question": "Кой е автора на Аз съм българче"
    },
    {
      "1": "Съществително собствено",
      "2": "Съществително нарицателно",
      "3": "",
      "4": "Прилагателно",
      "5": "Не знам",
      "question": "Какво е Карта"
    },
    {
      "1": "Когато пчелата минава от един цвят на друг",
      "2": "Когато прашеца попадне в плодника",
      "3": "",
      "4": "",
      "5": "Когато се напудрим",
      "question": "Какво е опрашване"
    },
    {
      "1": "ДА",
      "2": "Горе долу",
      "3": "Бива",
      "4": "",
      "5": "Не",
      "question": "Харесвате ли теста"
    },
    {
      "1": "",
      "2": "",
      "3": "",
      "4": "",
      "5": "",
      "question": ""
    }
  ],
  "appname": "По малко от всичко!!!",
  "description": "Въпроси по всеки предмет.\r\n",
  "quiz": "1",
  "slug": "quizimage",
  "share": "Сподели във Фейсбук",
  "image": "",
  "results": [
    {
      "short": "Отлично ти си само за 6!",
      "full": "Ти си бил/а голям/а умник/ца!!!Браво!А дали си такъв в училище?",
      "image": ""
    },
    {
      "short": "Много добре!Майка ти ще се горее.",
      "full": "Можеш още.Поне мина с 5.",
      "image": ""
    },
    {
      "short": "Бива",
      "full": "Има още хляб да ядеш.",
      "image": ""
    },
    {
      "short": "УУУжас",
      "full": "Много зле.Напрегни сивото вещество.Ако знаеш какво е това.Сериозно.",
      "image": ""
    },
    {
      "short": "Тъпънар",
      "full": "Не знам как изобщо си прочел теста.Толкова си зле, че по зле от теб няма.Нищо не знаеш много си ТЪП.",
      "image": ""
    }
  ]
}