{
  "_id": "4ca9bb337c7ad",
  "promoted":true, "type":"bg", "hrev2": "1-93a46ab73e2a427dc98ab1ba5b30f415",  
  "questions": [
 
    {
      "1": "виолетово",
      "2": "оранжево",
      "3": "червено",
      "4": "зелено",
      "5": "синьо",
      "6": "розово",
      "7": "жълто",
      "question": "кой е любимият ти цвят?"
    }
  ],
  "appname": "твоят аромат",
  "description": "твоят аромат според любимият ти цвят",
  "quiz": "14",
  "image": "SJMJvIxme",
  "slug": "quizimage",
  "share": "Сподели във Фейсбук",
  "results": [
    {
      "short": "виолетово",
      "full": "кедър,лайка,здравец",
      "image": "B1wZDLlXg"
    },
    {
      "short": "оранжево",
      "full": "мандарина,портокал,пачули,кипарис,иланг-иланг,корияндър,мирта,кардимон,канела",
      "image": "B1wZDLlXg"
    },
    {
      "short": "червено",
      "full": "карамфим,санталово дърво,червена мащерка",
      "image": "B1wZDLlXg"
    },
    {
      "short": "зелено",
      "full": "мента,бор,розмарин,градински чай,бяла мащерка,ветивер",
      "image": "B1wZDLlXg"
    },
    {
      "short": "синьо",
      "full": "лавандула,пачули,палмяроза,евкалипт,розово дърво",
      "image": "B1wZDLlXg"
    },
    {
      "short": "розово",
      "full": "роза",
      "image": "B1wZDLlXg"
    },
    {
      "short": "жълто",
      "full": "лимон,цитрусови плодове,индийска върбинка,камфор,риган",
      "image": "B1wZDLlXg"
    }
  ]
}