{
	"_id": "4c79235f806b6",
	"promoted":true, "type":"bg", "hrev2": "1-30d37a3121110b580080d8390830f603",  
	"questions": [

		{
			"5": "Я",
			"1": "А",
			"2": "Б",
			"4": "У",
			"3": "Х",


			"question": "Изберете една от буквите:"
		}
	],
	"appname": "Бързо гадаене по букви",
	"description": "Кое е най-голямото ви желание в момента? Намислете го и изберете една от тези букви.",
	"quiz": "14",
	"slug": "quizimage",
	"share": "Сподели във Фейсбук",
	"image": "BJF9bQe7x",
	"results": [

		{
			"short": "Я - Една врата ще се затвори, но скоро ще се отвори друга с повече възможности.",
			"full": "Сега повече отвсякога ви е необходимо търпение и здрава мисъл. Не съжалявайте за загубите, които ще ви споходят и вярвайте в Съдбата си. Все пак по-добре ужасен край, отколкото ужас без край. В любовта давате повече, отколкото получавате. Заслужава ли си?",
			"image": "BJF9bQe7x"
		}, {
			"short": "A - Това е щастлив и благополучен период за вас.",
			"full": "Всичко, с което се захванете ще се увенчае с успех. Наслаждавайте се на живота и не се притеснявайте за нищо. Постарайте се да направите и хората около вас щастливи. Без значение колко високи цели сте си поставили, останете жизнерадостни и оптимистично настроени. Късметът ще е на ваша страна и е излишно да се притеснявате за каквото и да било.",
			"image": "BJF9bQe7x"
		}, {
			"short": "Б - Внимавайте с парите!",
			"full": "Съвсем скоро вашата находчивост ще ви донесе двойно по-големи печалби. Бъдете реалисти, когато си поставяте някакви цели и имайте реални очаквания. Бъдете особено бдителни, когато става дума за пари и финансови операции. Ако сте нервни и нетърпеливи само ще отблъснете хората около себе си и тези, които действително могат да ви помогнат за да осъществите плановете си.",
			"image": "BJF9bQe7x"
		},

		{
			"short": "У - Позволявате твърде много на околните.",
			"full": "По този начин допускате те да злоупотребяват с вашата доброта. Не вършете услуги и добрини, за които не са ви молили.Вслушайте се в собствената си интуиция. Ако вътрешният ви глас мълчи, вършете всичко по начина, по който сте го правили и досега. В никакъв случай не се опитвайте да изпреварите събитията – ще сгрешите!",
			"image": "BJF9bQe7x"
		}, {
			"short": "Х - Не обръщайте внимание на опитите да ви игнорират.",
			"full": "Запазете спокойствие и се придържайте към своята позиция. Останете верни на своите убеждения, независимо какви трудности ще срещнете по пътя към осъществяването на плановете си. Не трябва да се съмнявате с успеха си. За да се осъществи желанието ви е необходимо да останете верни на себе си и да вярвате в силите си. Само тогава ще сте в състояние да убедите околните да ви помогнат.",
			"image": "BJF9bQe7x"
		}
	]
}