{
  "_id": "4c87559b7c1fa",
  "promoted":true, "type":"bg", "hrev2": "1-2f932e7cabdd6dcb14e8db517ce49add",  
  "questions": [
   
    {
      "1": "15.02 -20.03",
      "2": "21.03 – 29.04",
      "3": "30.04 -04.06",
      "4": "05.06 06.07",
      "5": "07.07 -01.08",
      "6": "02.08-27.08",
      "7": "28.08 – 10.10",
      "8": "11.10 18.11",
      "9": "19.11 -26.12",
      "10": "27.12 – 18.01",
      "11": "19.01 -14.02",
      "question": "Кога си роден/а?"
    }
  ],
  "appname": "Японски хороскоп",
  "description": "",
  "quiz": "14",
  "image": "rJ0FXQg7x",
  "slug": "quizimage",
  "share": "Сподели във Фейсбук",
  "results": [
    {
      "short": "Черешов цвят",
      "full": "Вие сте страстни, чистосърдечни, спонтанни, ентусиазирани, заредени с положителна енергия. Добре е да бъдете по-упорити и да се доверявате на приятелите и любимия си. В любовта успявате да привлечете с чар, а не с нахалство.",
      "image": "rJ0FXQg7x"
    },
    {
      "short": "Слънце",
      "full": "Вие сте ненадминати идеалисти. Имате две движещи сили в живота – мъдростта и красотата. Копнеете за справедливост. Няма да сгрешите, ако винаги се вслушвате в интуицията си. В кариерата успявате лесно и по-бързо от другите.",
      "image": "rJ0FXQg7x"
    },
    {
      "short": "Бамбук",
      "full": "Адаптивни и гъвкави, вие лесно се приспособявате към всякакви хора и обстоятелства. Обожавате работата в екип. И на вас ще ви бъде от полза да разчитате на шестото си чувство. Ако нещо не върви, знаете, че скоро ще се отвори друга врата.",
      "image": "rJ0FXQg7x"
    },
    {
      "short": "Оризище",
      "full": "Непрестанно работите, често се пресилвате. Никога не се оплаквате и изпипвате всяка подробност. Имате много приятели и сте готови да им помогнете по всяко време. Уважавана личност сте.",
      "image": "rJ0FXQg7x"
    },
    {
      "short": "Лотос",
      "full": "Зодията е характерна за нежните, разсеяни, сантиментални, съчувстващи хора. Обичате живота, любовта и децата. Бъдете по-борбени и ще получите всичко, за което мечтаете. Иначе рискувате да се затворите в притесненията си и да не постигнете нищо.",
      "image": "rJ0FXQg7x"
    },
    {
      "short": "Мост",
      "full": "Вие сте връзката между два бряга, два свята, две вселени. Родени сте да помагате. Привличат ви странните явления, задграничните пътувания, изкуството. Не бива обаче да се отказвате от преследването на целите си насред път. Уравновесени сте и много хора търсят съвет и сътрудничество с вас.",
      "image": "rJ0FXQg7x"
    },
    {
      "short": "Градина",
      "full": "Любопитни, чаровни и добродушни, с лекота налагате мнението си над околните. Трябва обаче да си дадете сметка, че съвършенството е непостижимо. Вие винаги успявате в комплект с някой друг. Може би затова семейството поставяте преди кариерата си.",
      "image": "rJ0FXQg7x"
    },
    {
      "short": "Император",
      "full": "Възприемате живота като вълнуващо приключение. Въпреки че се сблъсквате с много препятствия, сте напълно уверени в успеха си. Препоръчително е обаче да сдържате своята мнителност.",
      "image": "rJ0FXQg7x"
    },
    {
      "short": "Императрица",
      "full": "Знаете какво искате и ожесточено преследвате целите си. Рискувате обаче да се възгордеете прекалено. Добре е да споделяте радостите си и с други хора. Успявате с късмет и воля.",
      "image": "rJ0FXQg7x"
    },
    {
      "short": "Луна",
      "full": "Няма по-спокоен, потаен и магнетичен човек от вас. Не бива обаче да се отказвате от личностното си развитие в името на голямата любов. Лесно раними сте и не успяват да разберат нуждите ви.",
      "image": "rJ0FXQg7x"
    },
    {
      "short": "Костенурка",
      "full": "Деликатността, постоянството и предпазливостта са вашите козове. Но под маската ви на „костенурка“ се крие страстна, свободолюбива и борбена личност. Научете се да отстоявате мнението си открито.",
      "image": "rJ0FXQg7x"
    }
  ]
}