{
    "_id": "4c7a6bc36a73f",
    "promoted":true, "type":"bg", "hrev2": "1-0738352750cd426bf7b0ac451aad9e11",    
    "questions": [{
        "1": "понеделник",
        "2": "вторник",
        "3": "сряда",
        "4": "четвъртък",
        "5": "петък",
        "6": "събота",
        "7": "неделя",
        "question": "В кой ден от седмицата си роден/а?"
    }],
    "appname": "В кой ден си роден?",
    "description": "Виж какъв човек си, според това в кой ден от седмицата си роден.",
    "quiz": "14",
    "image": "SJf1Aa6Gl",
    "slug": "quizimage",
    "share": "Сподели във Фейсбук",
    "results": [{
        "short": "родените в понеделник",
        "full": "Весели и жизнерадостни хора. Обичат живота и умеят да се радват и на дребните неща. Лесно откриват любовта в живота си.",
        "image": "rJu7A66Ge"
    }, {
        "short": "родените във вторник",
        "full": "Това са организираните хора. Вършат еднакво добре няколко неща наведнъж. Имат доста таланти и могат да се реализират в широк спектър от професии.",
        "image": "rJu7A66Ge"
    }, {
        "short": "родените в сряда",
        "full": "Умеят да работят под напрежение, изобилстват от оригинални идеи и могат да се справят с всякакви проблеми. Оптимисти са гледат само напред, без да се обръщат към минали случки.",
        "image": "rJu7A66Ge"
    }, {
        "short": "родените в четвъртък",
        "full": "Притежават много силен характер, амбициозни и упорити. Обичат да се налагат и да властват, имат чудесни ръководни умения. Бизнесът и търговията им се отдават.",
        "image": "rJu7A66Ge"
    }, {
        "short": "родените в петък",
        "full": "Обичат промените и да изненадват околните. Често сменят работното си място, защото бързо им омръзва. За съжаление и в любовта не са особено постоянни.",
        "image": "rJu7A66Ge"
    }, {
        "short": "родените в събота",
        "full": "Вдъхват доверие и респект у околните. С лекота се превръщат в неформални лидери на групата. Обичат да бъдат забелязвани и ценени. Разчитайте на тях за съвети.",
        "image": "rJu7A66Ge"
    }, {
        "short": "родените в неделя",
        "full": "Твърде дълто премислят ситуацията.Доста взискателни са, както към себе си, така и по отношение на околните. Организирани са и умеят да изслушват. От тях стават отлични журналисти и научни работници.",
        "image": "rJu7A66Ge"
    }]

}