{
  "_id": "4cbdc53a3eee2",
  "promoted":true, "type":"bg", "hrev2": "1-902d270d3bc15ea57fba8b2cac65bb5d",
  "questions": [
 
    {
      "1": "2681",
      "2": "2783",
      "3": "2197",
      "question": "Колко е 324+2367 ?"
    },
    {
      "1": "Когато сумираме цифрите на числото и получим число, което се дели на 3/9, то цялото число се дели на 3/9",
      "2": "Ако последните 2 цифри (точно в този ред) се делят на 3/9, то цялото число се дели на 3/9",
      "3": "Ако е четно",
      "question": "Какъв е признакът за делимост на 3, 9 ?"
    },
    {
      "1": "За умножение",
      "2": "За деление",
      "3": "За събиране",
      "question": "За какво използваме този знак ,, X \"?"
    },
    {
      "1": "Чрез алгоритъма на Евклид",
      "2": "Чрез алгоритъма на Енратостен",
      "3": "Чрез правилото на Гаус",
      "question": "Как се намира НОД (Наи-големия общ делител) на две числа?"
    },
    {
      "1": "Най-малко общо кратно",
      "2": "Най-голямо общо кратно",
      "3": "Нито едното",
      "question": "Какво означава НОК?"
    },
    {
      "1": "15745686555",
      "2": "15845686554",
      "3": "Не знам",
      "question": "Кое е числото след 15745686554?"
    },
    {
      "1": "Намират се простите числа",
      "2": "Намират се съставните числа",
      "3": "Нищо",
      "question": "Какво се прави със ситото на Енратостен?"
    },
    {
      "1": "K=d.n",
      "2": "K=d+n",
      "3": "Не знам",
      "question": "К е kратно d на ,когато:"
    }
  ],
  "appname": "Как си с математиката?",
  "description": "Развери дали ставаш за математик.",
  "quiz": "14",
  "slug": "quizimage",
  "share": "Сподели във Фейсбук",
  "image": "HkqVBO-7x",
  "results": [
    {
      "short": "Ти си роден математик!!!",
      "full": "Можеш да смяташ и знаеш повечето важни правила.",
      "image": "HyHFSOZ7l"
    },
    {
      "short": "Не всички са перфектни.",
      "full": "Математиката не тисе отдава напълно.",
      "image": "HyHFSOZ7l"
    },
    {
      "short": "Не разбираш от математика.",
      "full": "Знам, че истината боли, но ти не си роден, за да си математик.",
      "image": "HJRDrubQl"
    }
  ]
}