{
    "_id": "4c6ae78adbaa21",
    "quiz": "1-f81e2eaebc09c33e4faadc81d7200944",
    "share": "",
    "questions": [{
        "1": "бял",
        "2": "син",
        "3": "розов",
        "4": "черен",
        "question": "Кой е любимия ти цвят?"
    }, {
        "1": "да пътешествам",
        "2": "да уча",
        "3": "да танцувам",
        "4": "да готвя",
        "question": "Кое от изброените неща обичаш да правиш?"
    }, {
        "1": "не, защото често пътувам и не мога да имам сериозна връзка",
        "2": "не",
        "3": "да",
        "4": "не съм сигурен колко е сериозна връзката ми",
        "question": "Имаш ли си сериозен приятел/приятелка?"
    }, {
        "1": "куче",
        "2": "делфин",
        "3": "кон",
        "4": "котка",
        "question": "Кое е любимото ти животно?"
    }, {
        "1": "опаковки от бонбони",
        "2": "цветни листчета",
        "3": "картички на спортисти",
        "4": "банкноти от различни държави",
        "question": "Когато беше малък/малка колекционираше..."
    }],
    "appname": "Какъв/каква си бил/а в предишния си живот?",
    "description": "Направи си този тест, за да разбереш какъв/каква си бил/а в предишния си живот :)",
    "owner": "",
    "image": "Bk2Ub9jGx",
    "ownerpic": "",
    "uid": "4c6ae78adbaa2",
    "results": [{
        "short": "Археолог",
        "full": "В предишния си живот си бил/а мъж. Бил/а си археолог, пътешествал си много и в този живот обожаваш да пътуваш по света :)",
        "image": "BJO4J9sfx"
    }, {
        "short": "Готвач/ка",
        "image": "SyLO1qoMg",
        "full": "В предишния си живот си бил/а жена. Бил/а си готвачка. И в този живот те бива в готвенето :) "
    }, {
        "short": "Балерина",
        "image": "SyqOGcozg",
        "full": "В предишния си живот си бил/а жена. Бил/а си балерина. И в този живот любимото ти занимание са танците :)"
    }, {
        "short": "Съдия",
        "image": "SyVhGcjMx",
        "full": "В предишния си живот си бил/а мъж. Бил/а си съдия и в този живот обичаш да вземаш крайните решения и да съдиш хората :)"
    }],
    "slug": "quizimage"
}