{
  "_id": "4c768661ba160",
  "promoted":true, "type":"bg", "hrev2": "1-df1d5a9f3825f11a8ba811809b9cb124",
  "questions": [
 
    {
      "1": "прозрачна нощница",
      "2": "широка тениска",
      "3": "гола",
      "question": "Твоето предпочитано облекло за спане е:"
    },
    {
      "1": "мак",
      "2": "устни",
      "3": "Дядо Коледа",
      "question": "Коя дума свързваш с червения цвят?"
    },
    {
      "1": "къса пола и високи обувки",
      "2": "дънки и спортни обувки",
      "3": "без значение",
      "question": "Той те кани за пръв път на среща. Ти обличаш:"
    },
    {
      "1": "червило",
      "2": "фон дьо тен",
      "3": "хидратантен крем",
      "question": "Ако трябва да използваш само един козметичен препарат, кой ще избереш?"
    },
    {
      "1": "се отдаваш на разгулен живот с приятели",
      "2": "се затваряш у дома и изпадаш в депресия",
      "3": "изчакваш да мине време, за да се съвземеш",
      "question": "За да се излекуваш от любовно разочарование, ти:"
    },
    {
      "1": "екзотичен",
      "2": "с аромат на плодове",
      "3": "дискретен",
      "question": "Твоят парфюм е:"
    }
  ],
  "appname": "Умееш ли да съблазняваш?",
  "description": "Провери си възможностите в съблазняването :)",
  "quiz": "14",
  "image": "HkkX8Neme",
  "slug": "quizimage",
  "share": "Сподели във Фейсбук",
  "results": [
    {
      "short": "Ти си родена да съблазняваш!",
      "full": "Отделяш голямо внимание на външния си вид. Изключително си претенциозна, обичаш да се впускаш в неангажиращи флиртове, но си внимателна, когато правиш окончателния си избор.",
      "image": "HkkX8Neme"
    },
    {
      "short": "Ти си много освободена и разкрепостена!",
      "full": "Притежаваш чувствителна душа. Съблазняваш чрез думи. Когато някое момче е с теб, се чувства сигурно и общувате свободно. Никой не е в състояние да устои на чара ти!",
      "image": "HkkX8Neme"
    },
    {
      "short": "Ти можеш да бъдеш отлична съблазнителка!",
      "full": "Притежаваш голям потенциал и чар, които все още не можеш да използваш правилно. Започни с някой флирт, защото съвършенството се постига с много упражнения. Вярвай повече в себе си!",
      "image": "HkkX8Neme"
    }
  ]
}