{
  "_id": "4ce6cb961b19d",
  "promoted":true, "type":"bg", "hrev2": "1-e9802d9dcb35d500007d64f116218b56",
  "questions": [
 
    {
      "1": "никога",
      "2": "от време на време",
      "3": "често",
      "question": "Вълнувам се без причина:"
    },
    {
      "1": "никога",
      "2": "понякога",
      "3": "много често",
      "question": "Страхувам се, че приличам на глупак:"
    },
    {
      "1": "никога",
      "2": "случва се",
      "3": "много често",
      "question": "Безпокоя се за бъдещето си:"
    },
    {
      "1": "в никакъв случай",
      "2": "и аз не изглеждам зле",
      "3": "така е",
      "question": "Другите изглеждат много по-добре от мен:"
    },
    {
      "1": "о, не",
      "2": "рядко",
      "3": "много често",
      "question": "Чувствам, че не умея да разговарям както трябва:"
    },
    {
      "1": "нямам нужда",
      "2": "понякога",
      "3": "почти винаги",
      "question": "Иска ми се приятелите ми да ме окуражават:"
    },
    {
      "1": "проблемът е техен",
      "2": "рядко",
      "3": "много често",
      "question": "Другите очакват твърде много от мен:"
    },
    {
      "1": "не ме интересува",
      "2": "от време на време",
      "3": "често",
      "question": "Чувствам, че хората говорят зад гърба ми:"
    },
    {
      "1": "и какво от това",
      "2": "случва се",
      "3": "много често",
      "question": "Другите не се интересуват особено много от постиженията ми:"
    }
  ],
  "appname": "Колко точно оценявате себе си?",
  "description": "",
  "quiz": "14",
  "slug": "quizimage",
  "share": "Сподели във Фейсбук",
  "image": "B1qLIAMXx",
  "results": [
    {
      "short": "Висока самооценка",
      "full": "Трябва да се избавите от чувството си за превъзходство. Спрете да се надувате. Преустановете самохвалството.",
      "image": "S1bcLRfQg"
    },
    {
      "short": "Адекватна самооценка",
      "full": "Вие сте психологически зрял човек, който адекватно оценява своите способности. Можете да се нагърбите със сериозни дела. Другите разчитат на вас.",
      "image": "S1bcLRfQg"
    },
    {
      "short": "Вие се подценявате.",
      "full": "Вярвайте повече в себе си и в своите възможности. Търсете поле за изява и ще се почувствате силни.",
      "image": "S1bcLRfQg"
    }
  ]
}