{
  "_id": "4c8fbcb42c6fa",
  "promoted":true, "type":"bg", "hrev2": "1-dd2f47bb87b40556c96f71b151f1c31c",   
  "questions": [
 
    {
      "1": "вдигаш скандал",
      "2": "правиш лек коментар ",
      "3": "не коментираш, дори и не забелязваш ",
      "question": "Когато излизате вечер и той е неглиже ти:"
    },
    {
      "1": "няма значение кой ще ги подари ",
      "2": "би било добре да ги подари той",
      "3": "настояваш да ги подари той",
      "question": "Отивате на рожден ден на твоя приятелка. За цветята?"
    },
    {
      "1": "ако може - да помага",
      "2": "задължително е да се включва",
      "3": "домакинската работа може да почака ",
      "question": "Помощ у дома от него?"
    },
    {
      "1": "искаш да знаеш мнението му за това как изглеждаш",
      "2": "въобще не коментираш с него това",
      "3": "искаш да получиш комплимент, че изглеждаш добре",
      "question": "Преди да излезете:"
    },
    {
      "1": "очакваш комплимент ",
      "2": "е, редно е да забележи промяната ",
      "3": "може и да не види, все пак е мъж...",
      "question": "Когато се подстрижеш:"
    }
  ],
  "appname": "Взискателна ли си към него?",
  "description": "Той понякога ви ядосва - не си е лъснал обувките, облича неогладена риза, пропуска да си сложи вратовръзка...Всичко това може доста да натовари една връзка и от романтична бързо да я приземи. Ето един бърз и забавен тест за всички, които искат да проверят дали не прекаляват с взискателността или пък дали не са отпуснали много юздите.",
  "quiz": "14",
  "slug": "quizimage",
  "share": "Сподели във Фейсбук",
  "image": "HyzN31yQx",
  "results": [
    {
      "short": "Взискателна си!",
      "full": "Ти си много взискателна към него и отношението му към теб! \r\nТака рискуваш да го загубиш. \r\nПотърси баланса. Това ще е добре за теб.",
      "image": "SJ9I2kJ7l"
    },
    {
      "short": "Баланс!",
      "full": "Ти си в златната среда - понякога си, а понякога не си взискателна. Не му се давай!",
      "image": "SJ9I2kJ7l"
    },
    {
      "short": "Не си взискателна!",
      "full": "Tи изобщо не си взискателна! Даже си поотпуснала юздите! Потърси баланса!",
      "image": "SJ9I2kJ7l"
    }
  ]
}